{
    "YZECORIOLIS.SheetStats": "Attributs",
    "YZECORIOLIS.SheetTalents": "Dons",
    "YZECORIOLIS.SheetItems": "Objets",
    "YZECORIOLIS.SheetBio": "Bio",
    "YZECORIOLIS.SheetNotes": "Notes",

    "YZECORIOLIS.HitPoints": "Point Vie",
    "YZECORIOLIS.MindPoints": "Point Esprit",
    "YZECORIOLIS.Radiation": "Radiation",
    "YZECORIOLIS.Experience": "Experience",
    "YZECORIOLIS.Encumbrance": "Encombrement",

    "YZECORIOLIS.CrewPosition": "Poste Equipage",
    "YZECORIOLIS.CrewSpotCaptain": "Capitaine",
    "YZECORIOLIS.CrewSpotEngineer": "Mécanicien",
    "YZECORIOLIS.CrewSpotPilot": "Pilote",
    "YZECORIOLIS.CrewSpotSensorOperator": "Opérateur des Capteurs",
    "YZECORIOLIS.CrewSpotGunner": "Artilleur",

    "YZECORIOLIS.ErrorsInvalidSkillRoll": "les valeurs des compétences ou des attributs ne sont pas supérieures à zéro",
    "YZECORIOLIS.ErrorsInvalidAdvancedSkillRoll": "les compétences avancées doivent avoir une valeur d'au moins 1 pour pouvoir être utilisées",
    "YZECORIOLIS.PrayToIcons": "Prier les icônes",
    "YZECORIOLIS.PushedRoll": "Redoublement",
    "YZECORIOLIS.ModifierForRoll": "Modifier",
    "YZECORIOLIS.ModifierForRollQuestion": "Entrez le modificateur pour le Jet de Dé",

    "YZECORIOLIS.DarknessPointsControls": "Contrôle Point d'Ombre",
    "YZECORIOLIS.DarknessPointsAdd": "Ajouter Point d'Ombre",
    "YZECORIOLIS.DarknessPointsRemove": "Enlever Point d'Ombre",
    "YZECORIOLIS.DarknessPoints": "Point d'Ombre",


    "YZECORIOLIS.RollLimitedSucces": "Succès Limité",
    "YZECORIOLIS.RollCriticalSucces": "Succès Critique",
    "YZECORIOLIS.RollFailure": "Echec",


    "YZECORIOLIS.Reputation": "Reputation",
    "YZECORIOLIS.Icon": "icônes",
    "YZECORIOLIS.IconLadyOfTears": "La Dame des Larmes",
    "YZECORIOLIS.IconDancer": "Le Danseur",
    "YZECORIOLIS.IconGambler": "Le Joueur",
    "YZECORIOLIS.IconMerchant": "Le Négociant",
    "YZECORIOLIS.IconDeckhand": "Le Matelot",
    "YZECORIOLIS.IconTraveler": "Le Voyageur",
    "YZECORIOLIS.IconMessenger": "Le Messager",
    "YZECORIOLIS.IconJudge": "Le Juge",
    "YZECORIOLIS.IconFaceless": "Le Sans Visage",

    "YZECORIOLIS.Background": "Histoire",
    "YZECORIOLIS.CharNotes": "Notes",
    "YZECORIOLIS.Origin": "Origine",
    "YZECORIOLIS.Upbringing": "Education",
    "YZECORIOLIS.Humanite": "Humanides",
    "YZECORIOLIS.Concept": "Concept",
    "YZECORIOLIS.PersonalProblem": "Probleme Personnel",
    "YZECORIOLIS.Appearance": "Apparence",
    "YZECORIOLIS.Cabin": "Cabine",
    "YZECORIOLIS.Face": "Visage",
    "YZECORIOLIS.Clothing": "Vêtements",
    "YZECORIOLIS.Relationships": "Relations avec les Autres",
    "YZECORIOLIS.AddRelationship": "Ajouter une Relation",
    "YZECORIOLIS.RemoveRelationship": "Enlever une Relation",
    "YZECORIOLIS.Name": "Nom",
    "YZECORIOLIS.Buddy": "Compagnons",
    "YZECORIOLIS.PeopleMet": "Personnes que j'ai rencontrées",
    "YZECORIOLIS.AddMeeting": "Ajouter une Personne",
    "YZECORIOLIS.RemoveMeeting": "enlever une Personne",

    "YZECORIOLIS.MoneyCost": "Coût",
    "YZECORIOLIS.Birr": "Birr",
    "YZECORIOLIS.GroupConcept": "Concept du Groupe",
    "YZECORIOLIS.Category": "Categorie",
    "YZECORIOLIS.Description": "Description",
    "YZECORIOLIS.Attributes": "Attributs",
    "YZECORIOLIS.Add": "Ajout",
    "YZECORIOLIS.Edit": "Editer",
    "YZECORIOLIS.Delete": "Supprimer",

    "YZECORIOLIS.CreateTalent": "Creation Talent",
    "YZECORIOLIS.EditTalent": "Editer Talent",
    "YZECORIOLIS.DeleteTalent": "Supprimer Talent",
    "YZECORIOLIS.NewTalent": "Nouveau Talent",

    "YZECORIOLIS.CreateGear": "Creation Matériel",
    "YZECORIOLIS.CreateWeapon": "Creation Arme",
    "YZECORIOLIS.CreateArmor": "Creation Armure",
    "YZECORIOLIS.CreateExplosive": "Creation Explosif",

    "YZECORIOLIS.NewGear": "Nouveau Matériel",
    "YZECORIOLIS.NewWeapon": "Nouvel Arme",
    "YZECORIOLIS.NewArmor": "Nouvel Armure",
    "YZECORIOLIS.NewExplosive": "NouvelExplosive",

    "YZECORIOLIS.EditGear": "Editer Matériel",
    "YZECORIOLIS.EditWeapon": "Editer Arme",
    "YZECORIOLIS.EditArmor": "Editer Armure",
    "YZECORIOLIS.EditExplosive": "Editer Explosif",

    "YZECORIOLIS.DeleteGear": "Supprimer Matériel",
    "YZECORIOLIS.DeleteWeapon": "Supprimer Arme",
    "YZECORIOLIS.DeleteArmor": "Supprimer Armure",
    "YZECORIOLIS.DeleteExplosive": "Supprimer Explosif",

    "YZECORIOLIS.EquipWeapon": "Equipé Arme",
    "YZECORIOLIS.EquipGear": "Equipé Matériel",
    "YZECORIOLIS.EquipArmor": "Equipé Armure",

    "YZECORIOLIS.TechTier": "Niveau Tech",
    "YZECORIOLIS.AddFeature": "Ajouter Fonction",
    "YZECORIOLIS.DeleteFeature": "Supprimer Fonction",
    "YZECORIOLIS.Quantity": "Quantité",
    "YZECORIOLIS.Restricted": "Restreint",
    "YZECORIOLIS.Bonus": "Bonus",
    "YZECORIOLIS.Initiative": "Initiative",
    "YZECORIOLIS.CritType": "Type Critique",
    "YZECORIOLIS.Crit": "Critique",
    "YZECORIOLIS.Damage": "Dégâts",
    "YZECORIOLIS.Weight": "Poids",
    "YZECORIOLIS.Gear": "Matériel",
    "YZECORIOLIS.Weapons": "Armes",
    "YZECORIOLIS.Weapon": "Arme",
    "YZECORIOLIS.Armor": "Armure",
    "YZECORIOLIS.Automatic": "Automatique",
    "YZECORIOLIS.Explosive": "Explosif",
    "YZECORIOLIS.Explosives": "Explosifs",
    "YZECORIOLIS.BlastPower": "Pouvoir",
    "YZECORIOLIS.BlastRadius": "Rayon",
    "YZECORIOLIS.Special": "Speciales Fonctions",
    "YZECORIOLIS.EffectiveRange": "Portée Effective",
    "YZECORIOLIS.Range": "Portée",
    "YZECORIOLIS.CriticalInjuries": "Blessures Critiques",
    "YZECORIOLIS.CriticalInjury": "Blessure Critique",
    "YZECORIOLIS.CreateCriticalInjury": "Ajoutez Blessure Critique ",
    "YZECORIOLIS.EditCriticalInjury": "Editez Blessure Critique",
    "YZECORIOLIS.DeleteCriticalInjury": "Supprimer Blessure Critique",
    "YZECORIOLIS.NewCriticalInjury": "Nouvel Blessure Critique",
    "YZECORIOLIS.ArmorRating": "Protection",
    "YZECORIOLIS.ExtraFeatures": "Extra Fonction",

    "YZECORIOLIS.AttrStrength": "Force",
    "YZECORIOLIS.AttrAgility": "Agilité",
    "YZECORIOLIS.AttrWits": "Astuce",
    "YZECORIOLIS.AttrEmpathy": "Empathie",
    "YZECORIOLIS.SkillCatGeneral": "Compétences Generales",
    "YZECORIOLIS.SkillCatAdvanced": "Compétences Avancées",
    "YZECORIOLIS.SkillDexterity": "Dexterité",
    "YZECORIOLIS.SkillForce": "Puissance",
    "YZECORIOLIS.SkillInfiltration": "Infiltration",
    "YZECORIOLIS.SkillManipulation": "Manipulation",
    "YZECORIOLIS.SkillMeleeCombat": "Mêlée",
    "YZECORIOLIS.SkillObservation": "Observation",
    "YZECORIOLIS.SkillRangedCombat": "Tir",
    "YZECORIOLIS.SkillSurvival": "Survie",
    "YZECORIOLIS.SkillCommand": "Commandemment",
    "YZECORIOLIS.SkillCulture": "Culture",
    "YZECORIOLIS.SkillDataDjinn": "Data Djinn",
    "YZECORIOLIS.SkillMedicurgy": "Medicurgie",
    "YZECORIOLIS.SkillMysticPowers": "Pouvoirs Mystiques",
    "YZECORIOLIS.SkillPilot": "Pilotage",
    "YZECORIOLIS.SkillScience": "Science",
    "YZECORIOLIS.SkillTechnology": "Technologie",

    "YZECORIOLIS.AttrStrengthRoll": "Jet de Force",
    "YZECORIOLIS.AttrAgilityRoll": "Jet d'Agilité",
    "YZECORIOLIS.AttrWitsRoll": "Jet d'Astuce",
    "YZECORIOLIS.AttrEmpathyRoll": "Jet d'Empathie",
    "YZECORIOLIS.SkillDexterityRoll": "Jet de Dextérité",
    "YZECORIOLIS.SkillForceRoll": "Jet de Puissance",
    "YZECORIOLIS.SkillInfiltrationRoll": "Jet d'Infiltration",
    "YZECORIOLIS.SkillManipulationRoll": "Jet de Manipulation",
    "YZECORIOLIS.SkillMeleeCombatRoll": "Jet de Mêlée",
    "YZECORIOLIS.SkillObservationRoll": "Jet d'Observation",
    "YZECORIOLIS.SkillRangedCombatRoll": "Jet de Tir",
    "YZECORIOLIS.SkillSurvivalRoll": "Jet de Survie",
    "YZECORIOLIS.SkillCommandRoll": "Jet de Commandement",
    "YZECORIOLIS.SkillCultureRoll": "Jet de Culture",
    "YZECORIOLIS.SkillDataDjinnRoll": "Jet de Data Djinn",
    "YZECORIOLIS.SkillMedicurgyRoll": "Jet de Medicurgie",
    "YZECORIOLIS.SkillMysticPowersRoll": "Jet de Pouvoir Mystique",
    "YZECORIOLIS.SkillPilotRoll": "Jet de Pilotage",
    "YZECORIOLIS.SkillScienceRoll": "Jet de Science",
    "YZECORIOLIS.SkillTechnologyRoll": "Jet de Technologie",

    "YZECORIOLIS.TalentCatGroup": "Dons de Groupe",
    "YZECORIOLIS.TalentCatIcon": "Dons des Icones",
    "YZECORIOLIS.TalentCatGeneral": "Dons Generale",
    "YZECORIOLIS.TalentCatHumanite": "Dons Humanide",
    "YZECORIOLIS.TalentCatCybernetic": "Implants Cybernetiques",
    "YZECORIOLIS.TalentCatBionicSculpt": "Bioscuplture",
    "YZECORIOLIS.TalentCatMysticalPowers": "Pouvoirs Mystique",

    "YZECORIOLIS.GroupTalentCatFreeTraders": "Francs-Marchands",
    "YZECORIOLIS.GroupTalentCatMercenaries": "Mercenaires",
    "YZECORIOLIS.GroupTalentCatAgents": "Agents",
    "YZECORIOLIS.GroupTalentCatExplorers": "Explorateurs",
    "YZECORIOLIS.GroupTalentCatPilgrims": "Pèlerins",

    "YZECORIOLIS.TalentANoseForBirr": "Du Flair pour le Birr",
    "YZECORIOLIS.TalentEverythingIsForSale": "Tout le Monde à un Prix",
    "YZECORIOLIS.TalentQuickestRoute": "Chemin le plus rapide",

    "YZECORIOLIS.TalentAssault": "Tir Groupé",
    "YZECORIOLIS.TalentCharge": "Charge",
    "YZECORIOLIS.TalentSituationalAwareness": "Maîtres Eclaireurs",

    "YZECORIOLIS.TalentAFriendInEveryPort": "Un Ami dans chaque Port",
    "YZECORIOLIS.TalentAssassinsGuild": "Guilde des Assassins",
    "YZECORIOLIS.TalentDancersOfAhlam": "Danseurs d'Ahlam",

    "YZECORIOLIS.TalentSeasonedTravelers": "Voyageurs Chevronnés",
    "YZECORIOLIS.TalentSurvivors": "Survivants",
    "YZECORIOLIS.TalentTruthSeekers": "A la recherche de la Vérité",

    "YZECORIOLIS.TalentLastLaugh": "Une dernière Blague",
    "YZECORIOLIS.TalentMercyOfTheIcons": "Miséricorde des Icônes",
    "YZECORIOLIS.TalentOneLastBirr": "Un Birr pour l'Artiste",

    "YZECORIOLIS.TalentIconLadyOfTears": "Le Don de la Dame des Larmes",
    "YZECORIOLIS.TalentIconDancer": "The Dancer's Talent",
    "YZECORIOLIS.TalentIconGambler": "The Gambler's Talent",
    "YZECORIOLIS.TalentIconMerchant": "The Merchant's Talent",
    "YZECORIOLIS.TalentIconDeckhand": "The Deckhand's Talent",
    "YZECORIOLIS.TalentIconTraveler": "The Traveler's Talent",
    "YZECORIOLIS.TalentIconMessenger": "The Messenger's Talent",
    "YZECORIOLIS.TalentIconJudge": "The Judge's Talent",
    "YZECORIOLIS.TalentIconFacelessOne": "The Faceless One's Talent",

    "YZECORIOLIS.TalentBlessing": "Blessing",
    "YZECORIOLIS.TalentCombatVeteran": "Combat Veteran",
    "YZECORIOLIS.TalentDefensive": "Defensive",
    "YZECORIOLIS.TalentExecutioner": "Executioner",
    "YZECORIOLIS.TalentExoSpecialist": "Exo Specialist",
    "YZECORIOLIS.TalentFactionStanding": "Faction Standing",
    "YZECORIOLIS.TalentFieldMedicurg": "Field Medicurg",
    "YZECORIOLIS.TalentGearhead": "Gearhead",
    "YZECORIOLIS.TalentIntimidating": "Intimidating",
    "YZECORIOLIS.TalentJudgeOfCharacter": "Judge Of Character",
    "YZECORIOLIS.TalentLicensed": "Licensed",
    "YZECORIOLIS.TalentMachinegunner": "Machinegunner",
    "YZECORIOLIS.TalentMalicious": "Malicious",
    "YZECORIOLIS.TalentNineLives": "Nine Lives",
    "YZECORIOLIS.TalentPointBlank": "Point Blank",
    "YZECORIOLIS.TalentRapidReload": "Rapid Reload",
    "YZECORIOLIS.TalentRugged": "Rugged",
    "YZECORIOLIS.TalentSeductive": "Seductive",
    "YZECORIOLIS.TalentSprinter": "Sprinter",
    "YZECORIOLIS.TalentSoothing": "Soothing",
    "YZECORIOLIS.TalentTalismanMaker": "Talisman Maker",
    "YZECORIOLIS.TalentTheHassassinsThrust": "The Hassassin’s Thrust",
    "YZECORIOLIS.TalentThirdEye": "Third Eye",
    "YZECORIOLIS.TalentTough": "Tough",
    "YZECORIOLIS.TalentWealthyFamily": "Wealthy Family",
    "YZECORIOLIS.TalentZeroGTraining": "Zero-G Training",

    "YZECORIOLIS.TalentHumanitePheromones": "Pheromones",
    "YZECORIOLIS.TalentHumaniteResistant": "Resistant",
    "YZECORIOLIS.TalentHumaniteWaterBreathing": "Water Breathing",

    "YZECORIOLIS.TalentCyberneticAcceleratedReflexes": "Accelerated Reflexes",
    "YZECORIOLIS.TalentCyberneticActiveSensors": "Active Sensors",
    "YZECORIOLIS.TalentCyberneticBodyArmor": "Body Armor",
    "YZECORIOLIS.TalentCyberneticBuiltInWeapon": "Built-In Weapon",
    "YZECORIOLIS.TalentCyberneticComLink": "Com Link",
    "YZECORIOLIS.TalentCyberneticCyberneticMuscles": "Cybernetic Muscles",
    "YZECORIOLIS.TalentCyberneticEndoSkeleton": "Endo Skeleton",
    "YZECORIOLIS.TalentCyberneticLanguageModulator": "Language Modulator",
    "YZECORIOLIS.TalentCyberneticLieDetector": "Lie Detector",
    "YZECORIOLIS.TalentCyberneticPassiveSensors": "Passive Sensors",
    "YZECORIOLIS.TalentCyberneticServoLocks": "Servo Locks",
    "YZECORIOLIS.TalentCyberneticSkinElectrodes": "Skin Electrodes",
    "YZECORIOLIS.TalentCyberneticTargetingScope": "Targeting Scope",
    "YZECORIOLIS.TalentCyberneticVoiceAmplifier": "Voice Amplifier",
    "YZECORIOLIS.TalentCyberneticWaterBreathing": "Water Breathing",
    "YZECORIOLIS.TalentCyberneticWeatherproof": "Weatherproof",

    "YZECORIOLIS.TalentBionicBeautiful": "Beautiful",
    "YZECORIOLIS.TalentBionicBuiltInWeapon": "Built-In Weapon",
    "YZECORIOLIS.TalentBionicIntelligent": "Intelligent",
    "YZECORIOLIS.TalentBionicMorph": "Morph",
    "YZECORIOLIS.TalentBionicNimble": "Nimble",
    "YZECORIOLIS.TalentBionicQuick": "Quick",
    "YZECORIOLIS.TalentBionicRegenerate": "Regenerate",

    "YZECORIOLIS.TalentMysticalArtificer": "Artéfacteur",
    "YZECORIOLIS.TalentMysticalClairvoyant": "Extralucide",
    "YZECORIOLIS.TalentMysticalExorcist": "Exorciste",
    "YZECORIOLIS.TalentMysticalIntuition": "Intuition",
    "YZECORIOLIS.TalentMysticalMindReader": "Télépathie",
    "YZECORIOLIS.TalentMysticalMindWalker": "Télesthésie",
    "YZECORIOLIS.TalentMysticalPrediction": "Prediction",
    "YZECORIOLIS.TalentMysticalPremonition": "Premonition",
    "YZECORIOLIS.TalentMysticalStop": "Stop",
    "YZECORIOLIS.TalentMysticalTelekinesis": "Telekinesie",

    "YZECORIOLIS.TechTierPrimitive": "Primitive",
    "YZECORIOLIS.TechTierOrdinary": "Ordinaire",
    "YZECORIOLIS.TechTierAdvanced": "Avancée",
    "YZECORIOLIS.TechTierFaction": "Faction",
    "YZECORIOLIS.TechTierPortalBuilderRelic": "Relique",

    "YZECORIOLIS.GearWeightLight": "Léger",
    "YZECORIOLIS.GearWeightNormal": "Normal",
    "YZECORIOLIS.GearWeightHeavy": "Lourd",
    "YZECORIOLIS.GearWeightTiny": "Minuscule",
    "YZECORIOLIS.GearWeightZero": "-",

    "YZECORIOLIS.CritTypeNumeric": "Numeric Crit",
    "YZECORIOLIS.CritTypeCustom": "Custom Crit",

    "YZECORIOLIS.CloseRange": "Bout Portant",
    "YZECORIOLIS.ShortRange": "Courte Portée",
    "YZECORIOLIS.LongRange": "Longue Portée",
    "YZECORIOLIS.ExtremeRange": "Portée Extreme",

    "YZECORIOLIS.MigratedDP": "Systeme Points d'Ombre Migré",
    "YZECORIOLIS.HPBonus": "Bonus de PV",
    "YZECORIOLIS.Melee": "Melee"

}
